# demo program


{
    "student" : [
        {
            "id" : 1,
            "name" : "sam",
            "age" : 21
        },
        {
            "id" : 2,
            "name" : "deepak",
            "age" : 20
        }
    ]
}